"0","Fav_GameStr <- google_ps %>%"
"0","  filter(Category == ""GAME"" & Rating > 4.5 & Installs > 10000000 & Genres == ""Strategy"") %>%"
"0","  arrange(desc(Rating))"
"0","Fav_GameStr[1:3, c(1,3,4,5,6,8)]"
