"0","# check the data
glimpse(portTrain)
"
"1","Observations: 274
"
"1","Variables: 14
"
"1","$ trend      <fct> Up, Up, Down, Up, Up, Up, Down, Down, Down, Down, Up, Up, Down, Up, Up, Up, Up, Up, Up, Down, Down, Dow...
"
"1","$ timeDays   <fct> 7, 8, 9, 10, 11, 14, 15, 16, 17, 18, 21, 22, 23, 24, 25, 28, 29, 30, 31, 1, 5, 6, 7, 8, 11, 12, 13, 14,...
"
"1","$ timeMonths <fct> 8, 8, 8, 8, 8, 8, 8, 8, 8, 8, 8, 8, 8, 8, 8, 8, 8, 8, 8, 9, 9, 9, 9, 9, 9, 9, 9, 9, 9, 9, 9, 9, 9, 9, 9...
"
"1","$ indEMA     <dbl> 0.00699455088, 0.00717663908, 0.00697528529, -0.00099577547, 0.00170057747, 0.00413883410, 0.0053922547...
"
"1","$ indMACD    <dbl> 0.888793149, 0.959714328, 0.932959786, 0.050260950, -0.112123562, 0.074037166, 0.303503958, 0.228993162...
"
"1","$ indSAR     <dbl> 6.4322271, 6.6806456, 6.3324812, 1.7079934, 2.3887892, 3.2831013, 3.8452765, 2.7321478, 0.0141661, -3.0...
"
"1","$ indRSI     <dbl> 94.2782674, 97.4091735, 98.8570187, 9.1368814, 55.1199179, 83.1646683, 92.9388697, 56.4313350, 8.547581...
"
"1","$ indMFI     <dbl> 8.447632e+01, 8.475930e+01, 7.977321e+01, 7.227695e+01, 7.333479e+01, 7.341512e+01, 7.221087e+01, 5.335...
"
"1","$ indATR     <dbl> 2.519511, 3.213169, 2.511058, 5.123681, 3.874560, 3.111527, 2.603836, 2.441279, 2.887094, 2.815697, 2.7...
"
"1","$ indBBands  <dbl> 0.75083243, 1.15895968, 0.89639997, 0.27885199, 0.44341533, 0.78699801, 0.87563409, 0.72060024, 0.33165...
"
"1","$ indMAD     <dbl> 1.2157201, 2.3276701, 3.3358500, 3.3358500, 1.9718610, 1.7939341, 2.5945500, 2.5945500, 2.5945500, 2.59...
"
"1","$ indCCI     <dbl> 68.949648, 151.984519, 87.459423, -47.323303, -12.044083, 56.057838, 83.281668, 48.074761, -39.231632, ...
"
"1","$ indSMI     <dbl> 2.33427234, 3.03050698, 3.59552095, 1.88501968, 0.30635603, -0.11295160, 0.56316109, 1.27702526, 0.5778...
"
"1","$ indWPR     <dbl> 0.03405577, 0.33914702, 0.21629338, 0.89608402, 0.46927492, 0.08695676, 0.17391059, 0.65822812, 0.99571...
"
