"0","options(scipen = 1)"
"0","library(tidyverse)"
"0","library(ggthemes)"
"0","library(plotly)"
"0","library(ggdendro)"
"0","library(gganimate)"
"0","library(tm)"
"0","library(wordcloud2)"
"0","library(wordcloud)"
